J:\DCR\spring-boot-webjsp\src\main\java\com\daily\collection\web\home\service\IHomeService.java
J:\DCR\spring-boot-webjsp\src\main\java\com\daily\collection\web\login\bean\LoginBean.java
J:\DCR\spring-boot-webjsp\src\main\java\com\daily\collection\web\login\service\ILoginService.java
J:\DCR\spring-boot-webjsp\src\main\java\com\daily\collection\web\reports\bean\Reports.java
J:\DCR\spring-boot-webjsp\src\main\java\com\daily\collection\web\analytic\dao\IAnalyticDAO.java
J:\DCR\spring-boot-webjsp\src\main\java\com\daily\collection\web\config\WebConfiguration.java
J:\DCR\spring-boot-webjsp\src\main\java\com\daily\collection\web\reports\service\IReportService.java
J:\DCR\spring-boot-webjsp\src\main\java\com\daily\collection\web\adminstration\service\IAdminstratorService.java
J:\DCR\spring-boot-webjsp\src\main\java\com\daily\collection\web\tresaury\service\TreasuryServiceImpl.java
J:\DCR\spring-boot-webjsp\src\main\java\com\daily\collection\web\download\excel\ExcelViewResolver.java
J:\DCR\spring-boot-webjsp\src\main\java\com\daily\collection\web\json\viewresolver\JsonViewResolver.java
J:\DCR\spring-boot-webjsp\src\main\java\com\mkyong\LoginBean.java
J:\DCR\spring-boot-webjsp\src\main\java\com\daily\collection\web\transaction\service\TransactionServiceImpl.java
J:\DCR\spring-boot-webjsp\src\main\java\com\daily\collection\web\transaction\bean\Transaction.java
J:\DCR\spring-boot-webjsp\src\main\java\com\daily\collection\web\creation\bean\Student.java
J:\DCR\spring-boot-webjsp\src\main\java\com\daily\collection\web\home\service\HomeServiceImpl.java
J:\DCR\spring-boot-webjsp\src\main\java\com\mkyong\WelcomeController.java
J:\DCR\spring-boot-webjsp\src\main\java\com\daily\collection\web\adminstration\controller\AdminstrationController.java
J:\DCR\spring-boot-webjsp\src\main\java\com\daily\collection\web\login\service\LoginServiceImpl.java
J:\DCR\spring-boot-webjsp\src\main\java\com\daily\collection\web\common\DataUtil.java
J:\DCR\spring-boot-webjsp\src\main\java\com\daily\collection\web\creation\service\CreationImpl.java
J:\DCR\spring-boot-webjsp\src\main\java\com\daily\collection\web\mvc\interceptor\SessionInterceptor.java
J:\DCR\spring-boot-webjsp\src\main\java\com\daily\collection\web\home\repository\IHomerepository.java
J:\DCR\spring-boot-webjsp\src\main\java\com\daily\collection\web\tresaury\dao\TreasuryDaoImpl.java
J:\DCR\spring-boot-webjsp\src\main\java\com\daily\collection\web\adminstration\dao\AdminstratorDaoImpl.java
J:\DCR\spring-boot-webjsp\src\main\java\com\daily\collection\web\home\controller\HomeController.java
J:\DCR\spring-boot-webjsp\src\main\java\com\daily\collection\web\analytic\dao\AnalyticDAOImpl.java
J:\DCR\spring-boot-webjsp\src\main\java\com\daily\collection\web\home\bean\HomeBean.java
J:\DCR\spring-boot-webjsp\src\main\java\com\daily\collection\web\adminstration\dao\IAdminstratorDao.java
J:\DCR\spring-boot-webjsp\src\main\java\com\daily\collection\web\database\config\DataBaseConfiguration.java
J:\DCR\spring-boot-webjsp\src\main\java\com\daily\collection\web\adminstration\bean\Configuration.java
J:\DCR\spring-boot-webjsp\src\main\java\com\daily\collection\web\reports\dao\IReportsDao.java
J:\DCR\spring-boot-webjsp\src\main\java\com\daily\collection\web\tresaury\controller\TreasauryController.java
J:\DCR\spring-boot-webjsp\src\main\java\com\daily\collection\web\transaction\bean\AdditionalTransaction.java
J:\DCR\spring-boot-webjsp\src\main\java\com\daily\collection\web\analytic\service\IAnalyticService.java
J:\DCR\spring-boot-webjsp\src\main\java\com\daily\collection\web\download\excel\ExcelView.java
J:\DCR\spring-boot-webjsp\src\main\java\com\daily\collection\web\login\dao\LoginDaoImpl.java
J:\DCR\spring-boot-webjsp\src\main\java\com\daily\collection\web\analytic\bean\HeadDeatils.java
J:\DCR\spring-boot-webjsp\src\main\java\com\daily\collection\web\login\controller\LoginController.java
J:\DCR\spring-boot-webjsp\src\main\java\com\daily\collection\web\download\excel\DownloadExcel.java
J:\DCR\spring-boot-webjsp\src\main\java\com\daily\collection\web\creation\controller\CreationController.java
J:\DCR\spring-boot-webjsp\src\main\java\com\daily\collection\web\transaction\service\ITransactionService.java
J:\DCR\spring-boot-webjsp\src\main\java\com\daily\collection\web\analytic\controller\AnalyticController.java
J:\DCR\spring-boot-webjsp\src\main\java\com\daily\collection\web\login\dao\ILoginDao.java
J:\DCR\spring-boot-webjsp\src\main\java\com\daily\collection\web\reports\service\ReportsService.java
J:\DCR\spring-boot-webjsp\src\main\java\com\daily\collection\web\tresaury\bean\CollectionBean.java
J:\DCR\spring-boot-webjsp\src\main\java\com\daily\collection\web\home\bean\CollectionSummary.java
J:\DCR\spring-boot-webjsp\src\main\java\com\daily\collection\web\reports\controller\ReportsController.java
J:\DCR\spring-boot-webjsp\src\main\java\com\daily\collection\web\transaction\repository\TransactionDaoImpl.java
J:\DCR\spring-boot-webjsp\src\main\java\com\daily\collection\web\transaction\controller\TransactionController.java
J:\DCR\spring-boot-webjsp\src\main\java\com\daily\collection\web\tresaury\service\ITreasuryService.java
J:\DCR\spring-boot-webjsp\src\main\java\com\daily\collection\web\reports\bean\DCRBookList.java
J:\DCR\spring-boot-webjsp\src\main\java\com\daily\collection\web\analytic\service\AnalyticServiceImpl.java
J:\DCR\spring-boot-webjsp\src\main\java\com\daily\collection\web\home\repository\HomeRepositoryImpl.java
J:\DCR\spring-boot-webjsp\src\main\java\com\daily\collection\web\tresaury\bean\CollectionList.java
J:\DCR\spring-boot-webjsp\src\main\java\com\mkyong\SpringBootWebApplication.java
J:\DCR\spring-boot-webjsp\src\main\java\com\daily\collection\web\creation\service\ICreationService.java
J:\DCR\spring-boot-webjsp\src\main\java\com\daily\collection\web\reports\bean\DCRBook.java
J:\DCR\spring-boot-webjsp\src\main\java\com\daily\collection\web\transaction\repository\ITransactionRepository.java
J:\DCR\spring-boot-webjsp\src\main\java\com\daily\collection\web\transaction\repository\ITransactionDao.java
J:\DCR\spring-boot-webjsp\src\main\java\com\daily\collection\web\main\SpringBootWebApplication.java
J:\DCR\spring-boot-webjsp\src\main\java\com\daily\collection\web\reports\dao\ReportsDao.java
J:\DCR\spring-boot-webjsp\src\main\java\com\daily\collection\web\tresaury\dao\ITreasuryDao.java
J:\DCR\spring-boot-webjsp\src\main\java\com\daily\collection\web\creation\repository\StudentRepostories.java
J:\DCR\spring-boot-webjsp\src\main\java\com\daily\collection\web\adminstration\service\AdminstratorServiceImpl.java
J:\DCR\spring-boot-webjsp\src\main\java\com\daily\collection\web\mvc\configuration\WebMvcConfig.java
